{
"color": Color( 1, 0.776471, 0, 1 ),
"date_format": "None",
"family": "res://fonts/moshimoji/Moshimoji-0Y6R.ttf",
"hour_format": "12h",
"outline_color": Color( 0.290196, 0.290196, 0.290196, 1 ),
"pos_x": 3383.0,
"pos_y": -3.0,
"size": 100
}