; Engine configuration file.
; It's best edited using the editor UI and not directly,
; since the parameters that go here are not all obvious.
;
; Format:
;   [section] ; section goes between []
;   param=value ; assign values to parameters

config_version=4

[application]

config/name="SimpleClock"
run/main_scene="res://SimpleClock.tscn"
boot_splash/show_image=false
boot_splash/bg_color=Color( 0.141176, 0.141176, 0.141176, 1 )
config/icon="res://icon256.png"
config/windows_native_icon="res://icon-gimp-down.ico"

[display]

window/size/width=550
window/size/height=250
window/size/resizable=false
window/size/borderless=true
window/per_pixel_transparency/allowed=true
window/per_pixel_transparency/enabled=true
window/energy_saving/keep_screen_on=false
window/stretch/aspect="expand"

[gui]

common/drop_mouse_on_gui_input_disabled=true

[physics]

common/enable_pause_aware_picking=true

[rendering]

quality/driver/driver_name="GLES2"
vram_compression/import_etc=true
vram_compression/import_etc2=false
environment/default_environment="res://default_env.tres"
